Place,Name,Sex,BirthDate,Age,Equipment,Division,BodyweightKg,WeightClassKg,Bench1Kg,Bench2Kg,Bench3Kg,Bench4Kg,Best3BenchKg,Deadlift1Kg,Deadlift2Kg,Deadlift3Kg,Deadlift4Kg,Best3DeadliftKg,TotalKg,Event,Team
1,Silvina Ruiz,F,2000-01-06,22,Raw,J20-25,51,52,97.5,102.5,105,,105,150,160,170,-175,170,275,BD,BERSEKRS
1,Catalina Groppa,F,2000-04-09,22,Raw,J20-25,54.6,56,42.5,-45,-47.5,,42.5,110,115,120,-125,120,162.5,BD,BERSERKRS
DQ,Sonia Sarapura,F,1978-09-22,,Raw,M40-46,52.5,56,-60,-60,-60,,,-130,,,,,,BD,JOEL MENDEZ TRAINER
1,Analía Muñoz,F,1978-11-19,43,Raw,M40-46,62.4,67.5,55,60,65,,65,130,142.5,-152.5,,142.5,207.5,BD,TEAM ROJAS
1,Vanesa Andrea Aguiar,F,1978-11-28,43,Raw,M40-46,67.8,75,35,45,-50,,45,90,100,115,,115,160,BD,POLIFEMUS
1,Griselda Soler,F,1975-05-15,,Raw,M47-53,55.2,56,60,65,67.5,70,67.5,120,130,140,142.5,140,207.5,BD,SPORT GYM
1,Cecilia Gilabert Carbajo,F,1969-12-01,52,Raw,M47-53,72.8,75,50,-55,57.5,,57.5,120,130,-135,,130,187.5,BD,OAPLS
1,Alejandra Quintana Jimena,F,1971-10-14,,Raw,M47-53,52.5,56,45,60,65,,65,110,120,130,,130,195,BD,POLIFEMUS GYM
1,Marina Estela Choque,F,1980-11-04,41,Raw,Open,44,44,50,55,-60,,55,140,145,150,155,150,205,BD,OAPLS
1,Natalia Ballesteros,F,1991-01-06,31,Raw,Open,59,60,67.5,71,-72.5,,71,140,-150,-150,,140,211,BD,MOSTRO GYM
1,Carolina Franco,F,1996-06-23,26,Raw,Open,68.4,75,100,-107.5,107.5,110,107.5,150,160,170,175,170,277.5,BD,POLIFEMUS
1,Florencia Rolón,F,1996-05-14,26,Raw,Open,82,82.5,57.5,-62.5,-67.5,,57.5,155,165,172.5,-180,172.5,230,BD,BERSERKRS
1,Diana Vallinoto,F,1986-05-14,36,Raw,S33-39,44.8,48,62.5,70,75,-80,75,140,150,155,-160,155,230,BD,SPORT GYM
1,Micaela Acosta Leppez,F,2006-04-03,16,Raw,T16-17,55.1,56,65,-70,70,-71,70,120,122.5,125,,125,195,BD,KRONOS TRAINING CENTER
1,Morena Fernández Pastore,F,2006-08-19,16,Raw,T16-17,57.5,60,37,40,42.5,,42.5,80,90,100,,100,142.5,BD,TATO POWER GYM
1,Silvina Ruiz,F,2000-01-06,22,Raw,J20-25,51,52,97.5,102.5,105,,105,,,,,,105,B,BERSEKRS
2,Silvina Ruiz,F,2000-01-06,22,Raw,J20-25,51,52,95,102.5,-107,,102.5,,,,,,102.5,B,BERSERKRS
1,Carolina Franco,F,1996-06-23,26,Raw,Open,68.4,75,105,-110,-112,,105,,,,,,105,B,POLIFEMUS
1,Pedro Garcia Suarez,M,2003-12-04,18,Raw,T18-19,73.5,75,97.5,102.5,107.5,-110.5,107.5,,,,,,107.5,B,BERSERKRS
1,Patricia Romero,F,1977-07-21,45,Single-ply,M40-46,82.2,82.5,50,60,-70,,60,,,,,,60,B,GUERNICA TEAM
1,Agustina Solis,F,1999-08-02,23,Raw,J20-25,55.4,56,,,,,,150,-160,160,-165,160,160,D,BERSERKRS
1,María de los Milagros Terreri,F,1998-09-09,,Raw,J20-25,78.2,82.5,,,,,,95,100,105,110,105,105,D,BERSERKRS
1,Vanina Villalba,F,1981-08-14,,Raw,M40-46,74.8,75,,,,,,120,130,-135.5,,130,130,D,TATO POWER GYM
1,Elsa Inés Gregorio,F,1958-09-03,64,Raw,M61-67,81,82.5,,,,,,100,110,120,125,120,120,D,TEAM ROJAS
1,Mariana Parra,F,1990-11-05,31,Raw,Open,67.2,67.5,,,,,,135,150,160,165,160,160,D,ROCKET TEAM
1,Sonia Sarapura,F,1978-09-22,,Raw,M40-46,52.3,56,,,,,,125,135,145,-150,145,145,D,JOEL MENDEZ TRAINER
1,Mariano Sanchez Gaspari,M,2000-01-13,22,Raw,J20-25,74,75,100,105,-110,,105,145,155,-165,,155,260,BD,BERSERKRS
1,Facundo Benavidez,M,2002-08-12,20,Raw,J20-25,81,82.5,125,-135,135,-140.5,135,200,210,220,-240,220,355,BD,BERSERKRS
1,Francisco Dercoli,M,1999-01-16,23,Raw,J20-25,90,90,120,125,130,-135,130,-232.5,242.5,252.5,-260,252.5,382.5,BD,BERSERKRS
1,Manuel Federico Carrera,M,1998-01-21,24,Raw,J20-25,108,110,115,117.5,120.5,122,120.5,207.5,215,220,-225,220,340.5,BD,BERSERKRS
1,Agustín Sosa,M,1998-07-21,,Raw,J20-25,138,140,125,130,-135,,130,240,255,-270,,255,385,BD,BERSERKRS
1,Fernando Galleli,M,1975-08-20,,Raw,M47-53,72.6,75,110,-120,-120,,110,210,220,225,,225,335,BD,GUERNICA TEAM
1,Marcos Toconas,M,1982-05-19,40,Raw,M40-46,84.2,90,125,135,-140,,135,220,230,240,-245,240,375,BD,OAPLS
1,Víctor Giles,M,1981-08-07,41,Raw,M40-46,115.1,117.5,160,180,190,,190,270,290,-300,,290,480,BD,BERSERKRS
1,Cristian Matz,M,1981-01-07,,Raw,M40-46,156,140+,140,150,-160,,150,250,260,270,275,270,420,BD,RODRIGUEZ TEAM
1,Santiago Adrissono,M,1975-09-29,47,Raw,M47-53,74.8,75,115,120,125,,125,190,200,210,,210,335,BD,SPORT GYM
1,Jose Luis Berardi,M,1974-03-19,48,Raw,M47-53,89.7,90,130,137.5,,,137.5,210,220,227.5,,227.5,365,BD,NEXT LEVEL GYM
2,Normal Abel Cipriano,M,1970-12-29,51,Raw,M47-53,88.7,90,90,95,-100,,95,190,210,-220,,210,305,BD,TATO POWER GYM
1,Nelson Omar di Salvo,M,1970-10-11,51,Raw,M47-53,95.7,100,90,100,105,,105,140,-150,160,,160,265,BD,TATO POWER GYM
DQ,Jorge Franco Anibal,M,1967-07-17,55,Raw,M54-60,88.8,90,-160,-160,,,,180,200,,,200,,BD,POLIFEMUS GYM
1,Pedro Victor Adrian Querol,M,1959-05-17,63,Raw,M61-67,96.2,100,70,-85,-85,,70,110,120,130,,130,200,BD,TEAM ROJAS
1,Juan Ignacio Gonzalez Borda,M,1992-01-04,30,Raw,Open,61.5,67.5,75,82.5,90,,90,160,170,180,,180,270,BD,ROCKER TRAININGG CLUB
2,Dagoberto Espinoza,M,1992-09-12,30,Raw,Open,66.5,67.5,45,50,55,56,55,115,125,127.5,130,127.5,182.5,BD,SPORT GYM
1,Santiago Liporace,M,1992-08-17,30,Raw,Open,74.3,75,117.5,125,-132.5,,125,200,210,217.5,,217.5,342.5,BD,BERSERKRS
2,Malco Leyes,M,1993-01-30,29,Raw,Open,69.3,75,67.5,-72.5,-72.5,,67.5,137.5,145,-152.5,,145,212.5,BD,TEAM ROJAS
1,Marcos Di Santo,M,1992-08-02,30,Raw,Open,90,90,170,177.5,185,,185,220,240,255,,255,440,BD,BERSERKKRS
2,Gustavo Arrieta,M,1991-01-14,31,Raw,Open,86.4,90,90,100,-102.5,,100,180,-200,200,,200,300,BD,
1,Ramon Angel Diaz,M,1992-02-26,30,Raw,Open,94.7,100,150,160,-165,,160,250,260,-265,,260,420,BD,SAIYAGYM
2,Franco Gaston Gigena,M,1993-03-20,29,Raw,Open,93.1,100,100,110,115,,115,200,210,225,,225,340,BD,NEXT LEVEL GYM
1,Pablo Marcelo Gomory,M,1983-05-19,39,Raw,S33-39,81.3,82.5,80,90,-97.5,,90,180,190,195,-200,195,285,BD,AVIACION NAVAL ARENTINA
1,Matias Ruben Cobos,M,1985-11-19,36,Raw,S33-39,85,90,-110,110,115,,115,215,225,230,235,230,345,BD,PERSONAL GYM
DQ,Leonardo Pereyra,M,1985-01-13,37,Raw,S33-39,111.9,117.5,-120,-120,-120,,,240,250,-255,,250,,BD,GUERNICA TEAM
1,Saul Axel Fuentes Acuña,M,2005-03-11,17,Raw,T16-17,73.6,75,80,87.5,-92.5,,87.5,145,160,-175,,160,247.5,BD,POLIFEMUS GYM
1,Tomas Valentin Cipriano,M,2004-01-30,18,Raw,T18-19,54.7,56,60,65,-67.5,,65,125,130,-135,,130,195,BD,TATO POWER GYM
1,Pedro Garcia Suarez,M,2003-12-04,18,Raw,T18-19,73.5,75,97.5,102.5,107.5,-110.5,107.5,162.5,172.5,180,-183,180,287.5,BD,BERSERKRS
1,Ezequiel Francou,M,2002-10-31,19,Raw,T18-19,86.9,90,130.5,135,140,,140,190,200,-210,,200,340,BD,RAM GYM
1,Manuel Garcia Esponda,M,2002-12-11,19,Raw,T18-19,98.5,100,100,110,115.5,120,115.5,207.5,217.5,230.5,-235,230.5,346,BD,BERSERKRS
1,Jeremías Armando Reynoso,M,1982-01-30,40,Raw,M40-46,78.8,82.5,-80,-85,85,,85,,,,,,85,B,TECNOGGYM
1,Diego Carriqueo,M,1980-01-18,42,Raw,M40-46,88.7,90,160,165,167.5,,167.5,,,,,,167.5,B,UNIVERSO
1,Maximiliano Alvarez,M,1982-09-04,40,Raw,M40-46,124.2,125,180,190,-200,,190,,,,,,190,B,RODRIGUEZ TEAM
1,Maximiliano Guanciarrosa,M,1980-04-07,42,Raw,M40-46,127.6,140,200,210,-220,,210,,,,,,210,B,RONNIE GYM
1,Mario Holzman,M,1978-09-30,,Raw,M40-46,160.2,140+,155,160,165,,165,,,,,,165,B,TECNOGYM
1,Javier Quiroga,M,1972-08-20,50,Raw,M47-53,78.3,82.5,-110,110,-120,,110,,,,,,110,B,RONNIE GYM
1,Walter Daniel Echeverria,M,1974-02-21,48,Raw,M47-53,107.8,110,160,165,170,,170,,,,,,170,B,TECNO GYM
2,Marcelo Carrizo,M,1975-07-15,47,Raw,M47-53,106.3,110,160,167.5,-170,,167.5,,,,,,167.5,B,UNIVERSO
1,Marcelo Wagner,M,1966-09-29,56,Raw,M54-60,106,110,155,-160.5,160.5,,160.5,,,,,,160.5,B,TECNO GYM
1,Oscar Gonzalez,M,1960-09-20,62,Raw,M61-67,99.7,100,135,140.5,145,,145,,,,,,145,B,RODRIGUEZ TEAM
1,José María Rodriguez,M,1952-08-05,70,Raw,M68-74,93.5,100,90,95,100,100.5,100,,,,,,100,B,RODRIGUEZ TEAM
1,Damián Leonel Gómez,M,1993-09-28,29,Raw,Open,82.1,82.5,160,170,175.5,-180,175.5,,,,,,175.5,B,BERSEKRS
1,Ramon Angel Diaz,M,1992-02-26,30,Raw,Open,94.7,100,150,160,-165,,160,,,,,,160,B,SAIYAGYM
1,Cristian Maffini,M,1990-02-26,,Raw,Open,122.2,125,100,-107.5,107.5,,107.5,,,,,,107.5,B,TEAM ROJAS
1,Gaston Bersia,M,1985-10-01,,Raw,S33-39,147,140+,220,230,235,-240,235,,,,,,235,B,BERSEKRS
1,Ramiro Hisa,M,2003-03-13,19,Raw,T18-19,82,82.5,125,130,135,140,135,,,,,,135,B,BERSERKRS
1,Gillermo Amodeo,M,1973-08-27,49,Single-ply,M47-53,58.8,60,90,-95,97.5,,97.5,,,,,,97.5,B,SPORT GYM
DQ,Anibal Jorge Franco,M,1967-07-17,55,Single-ply,M54-60,88.8,90,-140,,,,,,,,,,,B,POLIFEMUS
1,Adrián Bogado,M,1988-01-06,34,Single-ply,Open,74.5,75,-150,150,-160,,150,,,,,,150,B,GUERNICA TEAM
1,Lucas Rimoldi,M,1998-05-15,24,Raw,J20-25,67.1,67.5,,,,,,175,185,195,-201,195,195,D,BERSERKRS
1,Luis Antonio Maldonado,M,1997-10-20,24,Raw,J20-25,100,100,,,,,,220,-225,225,,225,225,D,FUERZAS ARMADAS
1,Franco Leo Menazzi,M,1997-12-10,24,Raw,J20-25,152,140+,,,,,,315,332.5,350.5,-375,350.5,350.5,D,BERSERKRS
1,Abel Jesus Pereyra,M,1977-07-24,45,Raw,M40-46,80.6,82.5,,,,,,180,190,195,,195,195,D,MOSTRO GYM
1,Mariano Agustín Miravalles,M,1980-10-24,41,Raw,M40-46,89.9,90,,,,,,245,260,265,,265,265,D,SPORT GYM
1,Sergio Cosau,M,1964-03-16,58,Raw,M54-60,82,82.5,,,,,,190,205,210.5,212.5,210.5,210.5,D,OSAMA GYM
1,Matias Ruben Cobos,M,1978-09-22,,Raw,M40-46,85.5,90,,,,,,215,225,232.5,240.5,232.5,232.5,D,PERSONAL GYM
1,Juan Marcos Rodríguez,M,1984-08-27,,Raw,S33-39,128,140,,,,,,180,190,-200,,190,190,D,37
1,Alejandro Lamperti,M,1971-09-22,,Single-ply,M47-53,89.2,90,,,,,,215,225,232.5,237.5,232.5,232.5,D,PERSONAL GYM
1,Martín San Felice,M,1985-04-08,37,Single-ply,S33-39,78,82.5,,,,,,185,195,200.5,202.5,200.5,200.5,D,RODRIGUEZ TEAM
